<svg version="1.1" viewBox="0 0 15 18" xmlns="http://www.w3.org/2000/svg" xmlns:xlink="http://www.w3.org/1999/xlink">
 <title>Icon Trash</title>
 <desc>Created using Figma</desc>
 <g id="Canvas" transform="translate(-621 -1881)">
  <g id="Icon Trash">
   <use transform="translate(625.62 1886.6)" xlink:href="#path0_fill"/>
   <use transform="translate(627.92 1886.6)" xlink:href="#path0_fill"/>
   <use transform="translate(630.23 1886.6)" xlink:href="#path0_fill"/>
   <use transform="translate(621 1883.2)" xlink:href="#path1_fill"/>
   <use transform="translate(625.66 1881)" xlink:href="#path2_fill"/>
   <use transform="translate(622.16 1883.7)" xlink:href="#path3_fill"/>
  </g>
 </g>
 <defs>
  <path id="path0_fill" d="m0 0h1.1538v9.0197h-1.1538v-9.0197z" fill-rule="evenodd"/>
  <path id="path1_fill" d="m0 0h15v1.1275h-15v-1.1275z" fill-rule="evenodd"/>
  <path id="path2_fill" d="m5.6885 2.7792h-1.0731v-1.1275c0-0.3326-0.27692-0.6032-0.6173-0.6032h-2.3077c-0.34038 0-0.6173 0.2706-0.6173 0.6032v1.1275h-1.0731v-1.1275c0-0.911 0.75865-1.6517 1.6904-1.6517h2.3077c0.93173 0 1.6904 0.74074 1.6904 1.6517v1.1275z" fill-rule="evenodd"/>
  <path id="path3_fill" d="m9.806 15.264h-6.9231c-0.93115 0-1.7463-0.7379-1.8173-1.645l-1.0656-13.532 1.1504-0.086815 1.0656 13.533c0.02539 0.3219 0.33692 0.6037 0.66692 0.6037h6.9231c0.33004 0 0.64154-0.2818 0.66694-0.6032l1.0656-13.534 1.1503 0.086815-1.0655 13.532c-0.071 0.9071-0.8862 1.645-1.8173 1.645z" fill-rule="evenodd"/>
 </defs>
</svg>
